\relax 
\providecommand\hyper@newdestlabel[2]{}
\catcode `"\active 
\catcode `-\active 
\providecommand\HyperFirstAtBeginDocument{\AtBeginDocument}
\HyperFirstAtBeginDocument{\ifx\hyper@anchor\@undefined
\global\let\oldcontentsline\contentsline
\gdef\contentsline#1#2#3#4{\oldcontentsline{#1}{#2}{#3}}
\global\let\oldnewlabel\newlabel
\gdef\newlabel#1#2{\newlabelxx{#1}#2}
\gdef\newlabelxx#1#2#3#4#5#6{\oldnewlabel{#1}{{#2}{#3}}}
\AtEndDocument{\ifx\hyper@anchor\@undefined
\let\contentsline\oldcontentsline
\let\newlabel\oldnewlabel
\fi}
\fi}
\global\let\hyper@last\relax 
\gdef\HyperFirstAtBeginDocument#1{#1}
\providecommand\HyField@AuxAddToFields[1]{}
\providecommand\HyField@AuxAddToCoFields[2]{}
\select@language{czech}
\@writefile{toc}{\select@language{czech}}
\@writefile{lof}{\select@language{czech}}
\@writefile{lot}{\select@language{czech}}
\@writefile{lontscarea}{\select@language{czech}}
\@writefile{toc}{\contentsline {section}{\numberline {1}Zad\IeC {\'a}n\IeC {\'\i } a specifikace \IeC {\'u}lohy}{1}{section.1}}
\@writefile{toc}{\contentsline {subsection}{\numberline {1.1}Probl\IeC {\'e}m batohu}{1}{subsection.1.1}}
\newlabel{sub:problem_batohu}{{1.1}{1}{Problém batohu}{subsection.1.1}{}}
\@writefile{toc}{\contentsline {section}{\numberline {2}Jednoduch\IeC {\'e} varianty \IeC {\v r}e\IeC {\v s}en\IeC {\'\i }}{1}{section.2}}
\@writefile{toc}{\contentsline {subsection}{\numberline {2.1}\IeC {\v R}e\IeC {\v s}en\IeC {\'\i } hrubou silou}{1}{subsection.2.1}}
\@writefile{toc}{\contentsline {subsection}{\numberline {2.2}\IeC {\v R}e\IeC {\v s}en\IeC {\'\i } jednoduchou heuristikou}{2}{subsection.2.2}}
\@writefile{toc}{\contentsline {section}{\numberline {3}R\IeC {\'a}mcov\IeC {\'y} popis postupu \IeC {\v r}e\IeC {\v s}en\IeC {\'\i }}{2}{section.3}}
\@writefile{toc}{\contentsline {subsection}{\numberline {3.1}Hrubou silou}{2}{subsection.3.1}}
\@writefile{toc}{\contentsline {subsection}{\numberline {3.2}Heuristikou}{2}{subsection.3.2}}
\@writefile{toc}{\contentsline {section}{\numberline {4}Nam\IeC {\v e}\IeC {\v r}en\IeC {\'e} v\IeC {\'y}sledky}{2}{section.4}}
\@writefile{lot}{\contentsline {table}{\numberline {1}{\ignorespaces Relativn\IeC {\'\i } chyba v\IeC {\'y}po\IeC {\v c}tu p\IeC {\v r}i pou\IeC {\v z}it\IeC {\'\i } heuristiky podle pom\IeC {\v e}ru cena/v\IeC {\'a}ha.\relax }}{3}{table.caption.1}}
\providecommand*\caption@xref[2]{\@setref\relax\@undefined{#1}}
\newlabel{tab:cen-vah}{{1}{3}{Relativní chyba výpočtu při použití heuristiky podle poměru cena/váha.\relax }{table.caption.1}{}}
\@writefile{lot}{\contentsline {table}{\numberline {2}{\ignorespaces Relativn\IeC {\'\i } chyba v\IeC {\'y}po\IeC {\v c}tu p\IeC {\v r}i pou\IeC {\v z}it\IeC {\'\i } heuristiky podle v\IeC {\'a}hy.\relax }}{3}{table.caption.2}}
\@writefile{lot}{\contentsline {table}{\numberline {3}{\ignorespaces Relativn\IeC {\'\i } chyba v\IeC {\'y}po\IeC {\v c}tu p\IeC {\v r}i pou\IeC {\v z}it\IeC {\'\i } heuristiky podle ceny.\relax }}{4}{table.caption.3}}
\newlabel{tab:cen}{{3}{4}{Relativní chyba výpočtu při použití heuristiky podle ceny.\relax }{table.caption.3}{}}
\@writefile{lof}{\contentsline {figure}{\numberline {1}{\ignorespaces Graf relativn\IeC {\'\i } chyby jednotliv\IeC {\'y}ch heuristick\IeC {\'y}ch algoritm\IeC {\r u}.\relax }}{4}{figure.caption.4}}
\newlabel{fig:error}{{1}{4}{Graf relativní chyby jednotlivých heuristických algoritmů.\relax }{figure.caption.4}{}}
\@writefile{lot}{\contentsline {table}{\numberline {4}{\ignorespaces \IeC {\v C}asy v\IeC {\'y}po\IeC {\v c}tu hrubou silou a heuristick\IeC {\'y}m algoritmem.\relax }}{5}{table.caption.5}}
\newlabel{tab:cen}{{4}{5}{Časy výpočtu hrubou silou a heuristickým algoritmem.\relax }{table.caption.5}{}}
\@writefile{lof}{\contentsline {figure}{\numberline {2}{\ignorespaces Graf pr\IeC {\r u}m\IeC {\v e}rn\IeC {\'e}ho \IeC {\v c}asu v\IeC {\'y}po\IeC {\v c}tu p\IeC {\v r}i \IeC {\v r}e\IeC {\v s}en\IeC {\'\i } heuristikou a hrubou silou.\relax }}{5}{figure.caption.6}}
\newlabel{fig:time}{{2}{5}{Graf průměrného času výpočtu při řešení heuristikou a hrubou silou.\relax }{figure.caption.6}{}}
\@writefile{toc}{\contentsline {section}{\numberline {5}Z\IeC {\'a}v\IeC {\v e}r}{6}{section.5}}
