\relax 
\providecommand\hyper@newdestlabel[2]{}
\catcode `"\active 
\catcode `-\active 
\providecommand\HyperFirstAtBeginDocument{\AtBeginDocument}
\HyperFirstAtBeginDocument{\ifx\hyper@anchor\@undefined
\global\let\oldcontentsline\contentsline
\gdef\contentsline#1#2#3#4{\oldcontentsline{#1}{#2}{#3}}
\global\let\oldnewlabel\newlabel
\gdef\newlabel#1#2{\newlabelxx{#1}#2}
\gdef\newlabelxx#1#2#3#4#5#6{\oldnewlabel{#1}{{#2}{#3}}}
\AtEndDocument{\ifx\hyper@anchor\@undefined
\let\contentsline\oldcontentsline
\let\newlabel\oldnewlabel
\fi}
\fi}
\global\let\hyper@last\relax 
\gdef\HyperFirstAtBeginDocument#1{#1}
\providecommand\HyField@AuxAddToFields[1]{}
\providecommand\HyField@AuxAddToCoFields[2]{}
\select@language{czech}
\@writefile{toc}{\select@language{czech}}
\@writefile{lof}{\select@language{czech}}
\@writefile{lot}{\select@language{czech}}
\@writefile{lontscarea}{\select@language{czech}}
\@writefile{toc}{\contentsline {section}{\numberline {1}Zad\IeC {\'a}n\IeC {\'\i } a specifikace \IeC {\'u}lohy}{1}{section.1}}
\@writefile{toc}{\contentsline {subsection}{\numberline {1.1}Probl\IeC {\'e}m batohu}{1}{subsection.1.1}}
\newlabel{sub:problem_batohu}{{1.1}{1}{Problém batohu}{subsection.1.1}{}}
\@writefile{toc}{\contentsline {section}{\numberline {2}Varianty \IeC {\v r}e\IeC {\v s}en\IeC {\'\i }}{1}{section.2}}
\@writefile{toc}{\contentsline {subsection}{\numberline {2.1}Metoda v\IeC {\v e}tv\IeC {\'\i } a hranic}{1}{subsection.2.1}}
\citation{cit:EDUX-BranchCut}
\citation{cit:ALGORITMY:Dynamic}
\citation{cit:fptas}
\@writefile{toc}{\contentsline {subsection}{\numberline {2.2}Dynamick\IeC {\'e} programov\IeC {\'a}n\IeC {\'\i }}{2}{subsection.2.2}}
\@writefile{toc}{\contentsline {subsection}{\numberline {2.3}FPTAS algoritmus}{2}{subsection.2.3}}
\@writefile{toc}{\contentsline {section}{\numberline {3}R\IeC {\'a}mcov\IeC {\'y} popis postupu \IeC {\v r}e\IeC {\v s}en\IeC {\'\i }}{2}{section.3}}
\@writefile{toc}{\contentsline {subsection}{\numberline {3.1}Metoda v\IeC {\v e}tv\IeC {\'\i } a hranic}{2}{subsection.3.1}}
\@writefile{toc}{\contentsline {subsection}{\numberline {3.2}Dynamick\IeC {\'e} programov\IeC {\'a}n\IeC {\'\i }}{2}{subsection.3.2}}
\@writefile{toc}{\contentsline {subsection}{\numberline {3.3}FPTAS algoritmus}{2}{subsection.3.3}}
\@writefile{toc}{\contentsline {section}{\numberline {4}Nam\IeC {\v e}\IeC {\v r}en\IeC {\'e} v\IeC {\'y}sledky}{3}{section.4}}
\@writefile{toc}{\contentsline {subsection}{\numberline {4.1}Relativn\IeC {\'\i } chyby algoritmu FPTAS}{3}{subsection.4.1}}
\@writefile{lot}{\contentsline {table}{\numberline {1}{\ignorespaces Chyba v\IeC {\'y}po\IeC {\v c}tu FPTAS algoritmu p\IeC {\v r}i zvolen\IeC {\'\i } maxim\IeC {\'a}ln\IeC {\'\i } chyby 10 \%. \relax }}{3}{table.caption.1}}
\providecommand*\caption@xref[2]{\@setref\relax\@undefined{#1}}
\newlabel{tab:fptas_chyba}{{1}{3}{Chyba výpočtu FPTAS algoritmu při zvolení maximální chyby 10 \%. \relax }{table.caption.1}{}}
\@writefile{lof}{\contentsline {figure}{\numberline {1}{\ignorespaces Graf odchylky FPTAS algoritmu p\IeC {\v r}i zvolen\IeC {\'\i } maxim\IeC {\'a}ln\IeC {\'\i } chyby 10 \%.\relax }}{4}{figure.caption.2}}
\newlabel{fig:error}{{1}{4}{Graf odchylky FPTAS algoritmu při zvolení maximální chyby 10 \%.\relax }{figure.caption.2}{}}
\@writefile{lot}{\contentsline {table}{\numberline {2}{\ignorespaces Srovn\IeC {\'a}n\IeC {\'\i } maxim\IeC {\'a}ln\IeC {\'\i } teoretick\IeC {\'e} relativn\IeC {\'\i } chyby s nam\IeC {\v e}\IeC {\v r}en\IeC {\'y}mi hodnotami pro vstup s 500 polo\IeC {\v z}kami.\relax }}{4}{table.caption.3}}
\newlabel{tab:mult_err_fptas}{{2}{4}{Srovnání maximální teoretické relativní chyby s naměřenými hodnotami pro vstup s 500 položkami.\relax }{table.caption.3}{}}
\@writefile{lof}{\contentsline {figure}{\numberline {2}{\ignorespaces Graf srovn\IeC {\'a}n\IeC {\'\i } maxim\IeC {\'a}ln\IeC {\'\i } teoretick\IeC {\'e} relativn\IeC {\'\i } chyby s nam\IeC {\v e}\IeC {\v r}en\IeC {\'y}mi hodnotami pro vstup s 500 polo\IeC {\v z}kami.\relax }}{5}{figure.caption.4}}
\newlabel{fig:mult_err_fptas}{{2}{5}{Graf srovnání maximální teoretické relativní chyby s naměřenými hodnotami pro vstup s 500 položkami.\relax }{figure.caption.4}{}}
\@writefile{toc}{\contentsline {subsection}{\numberline {4.2}\IeC {\v C}as v\IeC {\'y}po\IeC {\v c}tu probl\IeC {\'e}mu batohu pomoc\IeC {\'\i } jednotliv\IeC {\'y}ch algoritm\IeC {\r u}}{5}{subsection.4.2}}
\@writefile{lot}{\contentsline {table}{\numberline {3}{\ignorespaces Pr\IeC {\r u}m\IeC {\v e}rn\IeC {\'y} a maxim\IeC {\'a}ln\IeC {\'\i } \IeC {\v c}as v\IeC {\'y}po\IeC {\v c}tu p\IeC {\v r}i pou\IeC {\v z}it\IeC {\'\i } dynamick\IeC {\'e}ho programov\IeC {\'a}n\IeC {\'\i } s dekompozic\IeC {\'\i } podle \IeC {\v c}asu.\relax }}{6}{table.caption.5}}
\newlabel{tab:time_dyn}{{3}{6}{Průměrný a maximální čas výpočtu při použití dynamického programování s dekompozicí podle času.\relax }{table.caption.5}{}}
\@writefile{lof}{\contentsline {figure}{\numberline {3}{\ignorespaces Graf pr\IeC {\r u}m\IeC {\v e}rn\IeC {\'e}ho a maxim\IeC {\'a}ln\IeC {\'\i }ho v\IeC {\'y}po\IeC {\v c}tu p\IeC {\v r}i pou\IeC {\v z}it\IeC {\'\i } dynamick\IeC {\'e}ho programov\IeC {\'a}n\IeC {\'\i } s dekompozic\IeC {\'\i } podle \IeC {\v c}asu.\relax }}{7}{figure.caption.6}}
\newlabel{fig:time_dynamic}{{3}{7}{Graf průměrného a maximálního výpočtu při použití dynamického programování s dekompozicí podle času.\relax }{figure.caption.6}{}}
\@writefile{lot}{\contentsline {table}{\numberline {4}{\ignorespaces Pr\IeC {\r u}m\IeC {\v e}rn\IeC {\'y} a maxim\IeC {\'a}ln\IeC {\'\i } \IeC {\v c}as v\IeC {\'y}po\IeC {\v c}tu p\IeC {\v r}i pou\IeC {\v z}it\IeC {\'\i } FPTAS algoritmu p\IeC {\v r}i maxim\IeC {\'a}ln\IeC {\'\i } chyb\IeC {\v e} 10 \%.\relax }}{8}{table.caption.7}}
\newlabel{tab:time_fptas}{{4}{8}{Průměrný a maximální čas výpočtu při použití FPTAS algoritmu při maximální chybě 10 \%.\relax }{table.caption.7}{}}
\@writefile{lof}{\contentsline {figure}{\numberline {4}{\ignorespaces Graf pr\IeC {\r u}m\IeC {\v e}rn\IeC {\'e}ho a maxim\IeC {\'a}ln\IeC {\'\i }ho v\IeC {\'y}po\IeC {\v c}tu p\IeC {\v r}i pou\IeC {\v z}it\IeC {\'\i } FPTAS algoritmu\relax }}{9}{figure.caption.8}}
\newlabel{fig:time_dynamic}{{4}{9}{Graf průměrného a maximálního výpočtu při použití FPTAS algoritmu\relax }{figure.caption.8}{}}
\@writefile{lot}{\contentsline {table}{\numberline {5}{\ignorespaces Srovn\IeC {\'a}n\IeC {\'\i } pr\IeC {\r u}m\IeC {\v e}rn\IeC {\'e} doby b\IeC {\v e}hu programu FPTAS algoritmu s dynamick\IeC {\'y}m programov\IeC {\'a}n\IeC {\'\i }m pro vstup s 500 polo\IeC {\v z}kami.\relax }}{9}{table.caption.9}}
\newlabel{tab:time_fptas_dyn}{{5}{9}{Srovnání průměrné doby běhu programu FPTAS algoritmu s dynamickým programováním pro vstup s 500 položkami.\relax }{table.caption.9}{}}
\@writefile{lof}{\contentsline {figure}{\numberline {5}{\ignorespaces Graf srovn\IeC {\'a}n\IeC {\'\i } pr\IeC {\r u}m\IeC {\v e}rn\IeC {\'e} doby v\IeC {\'y}po\IeC {\v c}tu mezi FPTAS a dynamick\IeC {\'y}m programov\IeC {\'a}n\IeC {\'\i }m pro vstup s 500 polo\IeC {\v z}kami v z\IeC {\'a}vislosti na maxim\IeC {\'a}ln\IeC {\'\i } teoretick\IeC {\'e} chyb\IeC {\v e} algoritmu.\relax }}{10}{figure.caption.10}}
\newlabel{fig:time_dynamic_fptas_comp}{{5}{10}{Graf srovnání průměrné doby výpočtu mezi FPTAS a dynamickým programováním pro vstup s 500 položkami v závislosti na maximální teoretické chybě algoritmu.\relax }{figure.caption.10}{}}
\@writefile{lof}{\contentsline {figure}{\numberline {6}{\ignorespaces Graf srovn\IeC {\'a}n\IeC {\'\i } pr\IeC {\r u}m\IeC {\v e}rn\IeC {\'e} doby v\IeC {\'y}po\IeC {\v c}tu mezi FPTAS a dynamick\IeC {\'y}m programov\IeC {\'a}n\IeC {\'\i }m\relax }}{11}{figure.caption.11}}
\newlabel{fig:time_dynamic_fptas_comp}{{6}{11}{Graf srovnání průměrné doby výpočtu mezi FPTAS a dynamickým programováním\relax }{figure.caption.11}{}}
\@writefile{lot}{\contentsline {table}{\numberline {6}{\ignorespaces Pr\IeC {\r u}m\IeC {\v e}rn\IeC {\'y} a maxim\IeC {\'a}ln\IeC {\'\i } \IeC {\v c}as v\IeC {\'y}po\IeC {\v c}tu p\IeC {\v r}i pou\IeC {\v z}it\IeC {\'\i } metody v\IeC {\v e}tv\IeC {\'\i } a hranic\relax }}{12}{table.caption.12}}
\newlabel{tab:time_bb}{{6}{12}{Průměrný a maximální čas výpočtu při použití metody větví a hranic\relax }{table.caption.12}{}}
\@writefile{lof}{\contentsline {figure}{\numberline {7}{\ignorespaces Graf pr\IeC {\r u}m\IeC {\v e}rn\IeC {\'e}ho a maxim\IeC {\'a}ln\IeC {\'\i }ho v\IeC {\'y}po\IeC {\v c}tu p\IeC {\v r}i pou\IeC {\v z}it\IeC {\'\i } metody v\IeC {\v e}tv\IeC {\'\i } a hranic.\relax }}{12}{figure.caption.13}}
\newlabel{fig:time_bb}{{7}{12}{Graf průměrného a maximálního výpočtu při použití metody větví a hranic.\relax }{figure.caption.13}{}}
\@writefile{lot}{\contentsline {table}{\numberline {7}{\ignorespaces Srovn\IeC {\'a}n\IeC {\'\i } pr\IeC {\r u}m\IeC {\v e}rn\IeC {\'e}ho \IeC {\v c}asu v\IeC {\'y}po\IeC {\v c}tu jednotliv\IeC {\'y}ch algoritm\IeC {\r u} s hrubou silou.\relax }}{13}{table.caption.14}}
\newlabel{tab:time_bb}{{7}{13}{Srovnání průměrného času výpočtu jednotlivých algoritmů s hrubou silou.\relax }{table.caption.14}{}}
\@writefile{lof}{\contentsline {figure}{\numberline {8}{\ignorespaces Graf pr\IeC {\r u}m\IeC {\v e}rn\IeC {\'e}ho \IeC {\v c}asu v\IeC {\'y}po\IeC {\v c}tu jednotliv\IeC {\'y}ch algoritm\IeC {\r u} .\relax }}{13}{figure.caption.15}}
\newlabel{fig:time_comp}{{8}{13}{Graf průměrného času výpočtu jednotlivých algoritmů .\relax }{figure.caption.15}{}}
\@writefile{toc}{\contentsline {section}{\numberline {5}Z\IeC {\'a}v\IeC {\v e}r}{13}{section.5}}
\bibcite{cit:EDUX-BranchCut}{1}
\bibcite{cit:ALGORITMY:Dynamic}{2}
\bibcite{cit:fptas}{3}
