\relax 
\providecommand\hyper@newdestlabel[2]{}
\providecommand*\new@tpo@label[2]{}
\catcode `"\active 
\catcode `-\active 
\providecommand\HyperFirstAtBeginDocument{\AtBeginDocument}
\HyperFirstAtBeginDocument{\ifx\hyper@anchor\@undefined
\global\let\oldcontentsline\contentsline
\gdef\contentsline#1#2#3#4{\oldcontentsline{#1}{#2}{#3}}
\global\let\oldnewlabel\newlabel
\gdef\newlabel#1#2{\newlabelxx{#1}#2}
\gdef\newlabelxx#1#2#3#4#5#6{\oldnewlabel{#1}{{#2}{#3}}}
\AtEndDocument{\ifx\hyper@anchor\@undefined
\let\contentsline\oldcontentsline
\let\newlabel\oldnewlabel
\fi}
\fi}
\global\let\hyper@last\relax 
\gdef\HyperFirstAtBeginDocument#1{#1}
\providecommand\HyField@AuxAddToFields[1]{}
\providecommand\HyField@AuxAddToCoFields[2]{}
\select@language{czech}
\@writefile{toc}{\select@language{czech}}
\@writefile{lof}{\select@language{czech}}
\@writefile{lot}{\select@language{czech}}
\@writefile{lontscarea}{\select@language{czech}}
\@writefile{toc}{\contentsline {section}{\numberline {1}Zad\IeC {\'a}n\IeC {\'\i } a specifikace \IeC {\'u}lohy}{1}{section.1}}
\@writefile{toc}{\contentsline {subsection}{\numberline {1.1}Probl\IeC {\'e}m batohu}{1}{subsection.1.1}}
\newlabel{sub:problem_batohu}{{1.1}{1}{Problém batohu}{subsection.1.1}{}}
\@writefile{toc}{\contentsline {section}{\numberline {2}R\IeC {\'a}mcov\IeC {\'y} popis postupu \IeC {\v r}e\IeC {\v s}en\IeC {\'\i }}{1}{section.2}}
\@writefile{toc}{\contentsline {subsection}{\numberline {2.1}Popis z\IeC {\'a}kladn\IeC {\'\i }ho principu simulovan\IeC {\'e}ho ochlazov\IeC {\'a}n\IeC {\'\i }.}{1}{subsection.2.1}}
\@writefile{toc}{\contentsline {subsection}{\numberline {2.2}Popis implementace}{1}{subsection.2.2}}
\newlabel{sub:popis_implementace}{{2.2}{1}{Popis implementace}{subsection.2.2}{}}
\@writefile{toc}{\contentsline {subsubsection}{\numberline {2.2.1}Zlep\IeC {\v s}ov\IeC {\'a}n\IeC {\'\i }}{2}{subsubsection.2.2.1}}
\@writefile{toc}{\contentsline {subsubsection}{\numberline {2.2.2}Ur\IeC {\v c}en\IeC {\'\i } po\IeC {\v c}\IeC {\'a}te\IeC {\v c}n\IeC {\'\i } teploty a bodu zamrznut\IeC {\'\i }.}{2}{subsubsection.2.2.2}}
\@writefile{toc}{\contentsline {subsubsection}{\numberline {2.2.3}Hled\IeC {\'a}n\IeC {\'\i } souseda}{2}{subsubsection.2.2.3}}
\@writefile{toc}{\contentsline {subsection}{\numberline {2.3}Po\IeC {\v c}et iterac\IeC {\'\i } k dosa\IeC {\v z}en\IeC {\'\i } equilibria}{2}{subsection.2.3}}
\@writefile{toc}{\contentsline {subsubsection}{\numberline {2.3.1}Hled\IeC {\'a}n\IeC {\'\i } po\IeC {\v c}\IeC {\'a}te\IeC {\v c}n\IeC {\'\i }ho stavu}{2}{subsubsection.2.3.1}}
\@writefile{toc}{\contentsline {section}{\numberline {3}Nam\IeC {\v e}\IeC {\v r}en\IeC {\'e} v\IeC {\'y}sledky}{2}{section.3}}
\@writefile{lot}{\contentsline {table}{\numberline {1}{\ignorespaces Nastaven\IeC {\'e} hodnoty\relax }}{3}{table.caption.1}}
\providecommand*\caption@xref[2]{\@setref\relax\@undefined{#1}}
\newlabel{tab:fptas_chyba}{{1}{3}{Nastavené hodnoty\relax }{table.caption.1}{}}
\@writefile{toc}{\contentsline {subsection}{\numberline {3.1}Pravd\IeC {\v e}podobnost zlep\IeC {\v s}en\IeC {\'\i }.}{3}{subsection.3.1}}
\@writefile{lot}{\contentsline {table}{\numberline {2}{\ignorespaces Nam\IeC {\v e}\IeC {\v r}en\IeC {\'e} v\IeC {\'y}sledky. Jednotky relativn\IeC {\'\i }ch chyb jsou procenta, \IeC {\v c}asy v\IeC {\'y}po\IeC {\v c}tu jsou v ms.\relax }}{3}{table.caption.2}}
\newlabel{tab:fptas_chyba}{{2}{3}{Naměřené výsledky. Jednotky relativních chyb jsou procenta, časy výpočtu jsou v ms.\relax }{table.caption.2}{}}
\newlabel{fig:better_rate}{{\caption@xref {fig:better_rate}{ on input line 161}}{4}{Pravděpodobnost zlepšení}{figure.caption.3}{}}
\newlabel{fig:time_comp}{{\caption@xref {fig:time_comp}{ on input line 166}}{5}{Pravděpodobnost zlepšení}{figure.caption.4}{}}
\newlabel{fig:better_rate}{{3.1}{5}{Pravděpodobnost zlepšení}{figure.caption.4}{}}
\@writefile{toc}{\contentsline {subsection}{\numberline {3.2}Koeficient ochlazov\IeC {\'a}n\IeC {\'\i }.}{6}{subsection.3.2}}
\@writefile{lot}{\contentsline {table}{\numberline {3}{\ignorespaces Nam\IeC {\v e}\IeC {\v r}en\IeC {\'e} v\IeC {\'y}sledky. Jednotky relativn\IeC {\'\i }ch chyb jsou procenta, \IeC {\v c}asy v\IeC {\'y}po\IeC {\v c}tu jsou v ms.\relax }}{6}{table.caption.5}}
\newlabel{tab:fptas_chyba}{{3}{6}{Naměřené výsledky. Jednotky relativních chyb jsou procenta, časy výpočtu jsou v ms.\relax }{table.caption.5}{}}
\newlabel{fig:time_comp}{{\caption@xref {fig:time_comp}{ on input line 228}}{7}{Koeficient ochlazování}{figure.caption.6}{}}
\newlabel{fig:time_comp}{{\caption@xref {fig:time_comp}{ on input line 233}}{8}{Koeficient ochlazování}{figure.caption.7}{}}
\@writefile{toc}{\contentsline {subsection}{\numberline {3.3}Po\IeC {\v c}et iterac\IeC {\'\i } b\IeC {\v e}hem stejn\IeC {\'e} teploty.}{8}{subsection.3.3}}
\@writefile{lot}{\contentsline {table}{\numberline {4}{\ignorespaces Nam\IeC {\v e}\IeC {\v r}en\IeC {\'e} v\IeC {\'y}sledky. Jednotky relativn\IeC {\'\i }ch chyb jsou procenta, \IeC {\v c}asy v\IeC {\'y}po\IeC {\v c}tu jsou v ms.\relax }}{9}{table.caption.8}}
\newlabel{tab:fptas_chyba}{{4}{9}{Naměřené výsledky. Jednotky relativních chyb jsou procenta, časy výpočtu jsou v ms.\relax }{table.caption.8}{}}
\newlabel{fig:time_comp}{{\caption@xref {fig:time_comp}{ on input line 320}}{10}{Počet iterací během stejné teploty}{figure.caption.9}{}}
\newlabel{fig:time_comp}{{\caption@xref {fig:time_comp}{ on input line 325}}{11}{Počet iterací během stejné teploty}{figure.caption.10}{}}
\@writefile{toc}{\contentsline {subsection}{\numberline {3.4}Bod zamrznut\IeC {\'\i }}{11}{subsection.3.4}}
\newlabel{eq:frozen}{{1}{11}{Bod zamrznutí}{equation.3.1}{}}
\@writefile{lot}{\contentsline {table}{\numberline {5}{\ignorespaces Nam\IeC {\v e}\IeC {\v r}en\IeC {\'e} v\IeC {\'y}sledky. Jednotky relativn\IeC {\'\i }ch chyb jsou procenta, \IeC {\v c}asy v\IeC {\'y}po\IeC {\v c}tu jsou v ms.\relax }}{12}{table.caption.11}}
\newlabel{tab:fptas_chyba}{{5}{12}{Naměřené výsledky. Jednotky relativních chyb jsou procenta, časy výpočtu jsou v ms.\relax }{table.caption.11}{}}
\newlabel{fig:time_comp}{{\caption@xref {fig:time_comp}{ on input line 394}}{12}{Bod zamrznutí}{figure.caption.12}{}}
\newlabel{fig:time_comp}{{\caption@xref {fig:time_comp}{ on input line 399}}{13}{Bod zamrznutí}{figure.caption.13}{}}
\@writefile{toc}{\contentsline {subsection}{\numberline {3.5}Po\IeC {\v c}\IeC {\'a}te\IeC {\v c}n\IeC {\'\i } teplota}{13}{subsection.3.5}}
\newlabel{eq:frozen}{{2}{13}{Počáteční teplota}{equation.3.2}{}}
\@writefile{lot}{\contentsline {table}{\numberline {6}{\ignorespaces Nam\IeC {\v e}\IeC {\v r}en\IeC {\'e} v\IeC {\'y}sledky. Jednotky relativn\IeC {\'\i }ch chyb jsou procenta, \IeC {\v c}asy v\IeC {\'y}po\IeC {\v c}tu jsou v ms.\relax }}{14}{table.caption.14}}
\newlabel{tab:fptas_chyba}{{6}{14}{Naměřené výsledky. Jednotky relativních chyb jsou procenta, časy výpočtu jsou v ms.\relax }{table.caption.14}{}}
\newlabel{fig:time_comp}{{\caption@xref {fig:time_comp}{ on input line 467}}{14}{Počáteční teplota}{figure.caption.15}{}}
\newlabel{fig:time_comp}{{\caption@xref {fig:time_comp}{ on input line 472}}{15}{Počáteční teplota}{figure.caption.16}{}}
\@writefile{toc}{\contentsline {section}{\numberline {4}V\IeC {\'y}sledn\IeC {\'e} parametry algoritmu a dosa\IeC {\v z}en\IeC {\'e} v\IeC {\'y}sledky}{15}{section.4}}
\@writefile{lot}{\contentsline {table}{\numberline {7}{\ignorespaces V\IeC {\'y}sledn\IeC {\'e} hodnoty parametr\IeC {\r u} algoritmu\relax }}{15}{table.caption.17}}
\newlabel{tab:fptas_chyba}{{7}{15}{Výsledné hodnoty parametrů algoritmu\relax }{table.caption.17}{}}
\@writefile{lot}{\contentsline {table}{\numberline {8}{\ignorespaces V\IeC {\'y}sledky pro zvolen\IeC {\'e} parametry algoritmu. Doba v\IeC {\'y}po\IeC {\v c}tu je uvedena v ms, relativni chyba v procentech.\relax }}{15}{table.caption.18}}
\newlabel{tab:fptas_chyba}{{8}{15}{Výsledky pro zvolené parametry algoritmu. Doba výpočtu je uvedena v ms, relativni chyba v procentech.\relax }{table.caption.18}{}}
\@writefile{toc}{\contentsline {section}{\numberline {5}Z\IeC {\'a}v\IeC {\v e}r}{16}{section.5}}
